{
  "0": [
    {
      "ANNOT_FIELD_KEY": "<feff00550053004300490053004f006e006c0069006e00650041006300630074004e0075006d006200650072005b0030005d>",
      "LABEL_ID": "(To be completed by an attorney or accredited representative \\(if any\\).  Enter Attorney or Accredited Representative U S C I S Online Account Number \\(if any\\). 12 characters.)",
      "VALUE": "0 Hey"
    },
    {
      "ANNOT_FIELD_KEY": "<feff005000740031004c0069006e00650033005f0047006900760065006e004e0061006d0065005b0030005d>",
      "LABEL_ID": "(Part 1. Information About The Person Filing This Request.  3.  Enter Given Name \\(First Name\\).)",
      "VALUE": "1 Hey"
    },
    {
      "ANNOT_FIELD_KEY": "<feff005000740031004c0069006e00650033005f00460061006d0069006c0079004e0061006d0065005b0030005d>",
      "LABEL_ID": "(Part 1. Information About The Person Filing This Request.  3. Enter Family Name \\(Last Name\\).)",
      "VALUE": "2 Hey"
    },
    {
      "ANNOT_FIELD_KEY": "<feff005000740031004c0069006e00650033005f004d006900640064006c0065004e0061006d0065005b0030005d>",
      "LABEL_ID": "(Part 1. Information About The Person Filing This Request.  3. Enter Middle Name.)",
      "VALUE": "3 Hey"
    },
    {
      "ANNOT_FIELD_KEY": "<feff005000740031004c0069006e00650031005f0041006c00690065006e0052006500670069007300740072006100740069006f006e004e0075006d006200650072005b0030005d>",
      "LABEL_ID": "(START HERE - Type or print in black ink. Part 1. Information About the Person Filing This Request.  1. Enter Alien Registration Number A-Number \\(if any\\). A.  9 digits.)",
      "VALUE": "4 Hey"
    },
    {
      "ANNOT_FIELD_KEY": "<feff00500061007200740031005f004c0069006e00650035005f004d00610069006c0069006e00670041006400640072006500730073005f005300740072006500650074004e0075006d006200650072004e0061006d0065005b0030005d>",
      "LABEL_ID": "(Part 1. Information About The Person Filing This Request.  5. Mailing Address.  Enter Street Number and Name.)",
      "VALUE": "5 Hey"
    },
    {
      "ANNOT_FIELD_KEY": "<feff00500061007200740031005f004c0069006e00650035005f004d00610069006c0069006e00670041006400640072006500730073005f00430069007400790054006f0077006e005b0030005d>",
      "LABEL_ID": "(Part 1. Information About The Person Filing This Request.  5.  Mailing Address.  Enter City or Town.)",
      "VALUE": "6 Hey"
    },
    {
      "ANNOT_FIELD_KEY": "<feff00500061007200740031005f004c0069006e00650035005f004d00610069006c0069006e00670041006400640072006500730073005f0055006e00690074005b0030005d>",
      "LABEL_ID": "(Part 1. Information About The Person Filing This Request.  5. Mailing Address.  Select Suite.)",
      "VALUE": "7 Hey"
    },
    {
      "ANNOT_FIELD_KEY": "<feff00500061007200740031005f004c0069006e00650035005f004d00610069006c0069006e00670041006400640072006500730073005f0055006e00690074005b0031005d>",
      "LABEL_ID": "(Part 1. Information About The Person Filing This Request.  5. Mailing Address.  Selct Floor.)",
      "VALUE": "8 Hey"
    },
    {
      "ANNOT_FIELD_KEY": "<feff00500061007200740031005f004c0069006e00650035005f004d00610069006c0069006e00670041006400640072006500730073005f0041007000740053007400650046006c0072004e0075006d006200650072005b0030005d>",
      "LABEL_ID": "(Part 1. Information About The Person Filing This Request.  5. Mailing Address.  Enter Apartment, Suite, or Floor Number.)",
      "VALUE": "9 Hey"
    },
    {
      "ANNOT_FIELD_KEY": "<feff00500061007200740031005f004c0069006e00650035005f004d00610069006c0069006e00670041006400640072006500730073005f0055006e00690074005b0032005d>",
      "LABEL_ID": "(Part 1. Information About The Person Filing This Request.  5. Mailing Address.  Select Apartment.)",
      "VALUE": "10 Hey"
    },
    {
      "ANNOT_FIELD_KEY": "<feff005000740031004c0069006e00650035005f004d00610069006c0069006e00670041006400640072006500730073005f005a006900700043006f00640065005b0030005d>",
      "LABEL_ID": "(Part 1. Information About The Person Filing This Request. 5. Mailing Address.  Enter Zip Code.)",
      "VALUE": "11 Hey"
    },
    {
      "ANNOT_FIELD_KEY": "<feff00500061007200740031005f004c0069006e00650035005f004d00610069006c0069006e00670041006400640072006500730073005f00530074006100740065005b0030005d>",
      "LABEL_ID": "(Part 1. Information About The Person Filing This Request.  5. Mailing Address.  Select State from a list of states.)",
      "VALUE": "12 Hey"
    },
    {
      "ANNOT_FIELD_KEY": "<feff00500061007200740031005f004c0069006e00650035005f004d00610069006c0069006e00670041006400640072006500730073005f0049006e0043006100720065006f0066004e0061006d0065005b0030005d>",
      "LABEL_ID": "(Part 1. Information About The Person Filing This Request.  5. Mailing Address.  Enter In Care Of Name.)",
      "VALUE": "13 Hey"
    },
    {
      "ANNOT_FIELD_KEY": "<feff00500061007200740031005f004c0069006e00650035005f004d00610069006c0069006e00670041006400640072006500730073005f00500072006f00760069006e00630065005b0030005d>",
      "LABEL_ID": "(Part 1. Information About The Person Filing This Request.  5. Mailing Address. Enter Province.)",
      "VALUE": "14 Hey"
    },
    {
      "ANNOT_FIELD_KEY": "<feff00500061007200740031005f004c0069006e00650035005f004d00610069006c0069006e00670041006400640072006500730073005f0050006f007300740061006c0043006f00640065005b0030005d>",
      "LABEL_ID": "(Part 1. Information About The Person Filing This Request.  5. Mailing Address, Enter Postal Code.)",
      "VALUE": "15 Hey"
    },
    {
      "ANNOT_FIELD_KEY": "<feff00500061007200740031005f004c0069006e00650035005f004d00610069006c0069006e00670041006400640072006500730073005f0043006f0075006e007400720079005b0030005d>",
      "LABEL_ID": "(Part 1. Information About The Person Filing This Request.  5. Mailing Address. Enter Country.)",
      "VALUE": "16 Hey"
    },
    {
      "ANNOT_FIELD_KEY": "<feff00500061007200740031005f004c0069006e00650036005f0043006f006d00700061006e0079006f0072004f007200670061006e0069007a006100740069006f006e004e0061006d0065005b0030005d>",
      "LABEL_ID": "(Part 1.  Information About The Person Filing This Request.  4.  Enter Company or Organization Named in the Related Case \\( If filed on behalf of a company or organization\\).)",
      "VALUE": "17 Hey"
    },
    {
      "ANNOT_FIELD_KEY": "<feff00500061007200740031004c0069006e00650035005f0043006800650063006b0062006f0078005b0030005d>",
      "LABEL_ID": "(Part 1. Information About The Person Filing This Request. 6. Is your current mailing address the same as your physical address? Select Yes.)",
      "VALUE": "18 Hey"
    },
    {
      "ANNOT_FIELD_KEY": "<feff00500061007200740031004c0069006e00650035005f0043006800650063006b0062006f0078005b0031005d>",
      "LABEL_ID": "(Part 1. Information About The Person Filing This Request. 6. Is your current mailing address the same as your physical address? Select No.  If you answered \"No\" to Item Number 6., provide your physical address in Item Number 7.)",
      "VALUE": "19 Hey"
    },
    {
      "ANNOT_FIELD_KEY": "<feff0043006800650063006b0042006f00780031005b0030005d>",
      "LABEL_ID": "(To be completed by an attorney or accredited representative, if any.  Select this box if Form G - 28 or Form G - 2 81 is attached.)",
      "VALUE": "20 Hey"
    },
    {
      "ANNOT_FIELD_KEY": "<feff004100740074007900530074006100740065004200610072004e0075006d006200650072005b0030005d>",
      "LABEL_ID": "(To be completed by an attorney or accredited representative \\(if any\\). Enter Attorney State Bar Number, if applicable.)",
      "VALUE": "21 Hey"
    },
    {
      "ANNOT_FIELD_KEY": "<feff005000740032004c0069006e00650032005f00550053004300490053004f006e006c0069006e0065004100630074004e0075006d006200650072005b0030005d>",
      "LABEL_ID": "(Part 1.  Information About the Person Filing This Request. 2. Enter U S C I S Online Account Number, if any. 12 characters.)",
      "VALUE": "22 Hey"
    }
  ],
  "1": [
    {
      "ANNOT_FIELD_KEY": "<feff00500061007200740031005f004c0069006e006500310031005f0043006800650063006b0042006f0078005b0030005d>",
      "LABEL_ID": "(Part 1.  Information About The Person Filing This Request.  8. Request for Premium Processing Service \\(select only one box\\). Select I am the applicant who is filing or has filed an application eligible for Premium Processing Service.)",
      "VALUE": "0 Hey"
    },
    {
      "ANNOT_FIELD_KEY": "<feff00500061007200740031005f004c0069006e006500310031005f0043006800650063006b0042006f0078005b0031005d>",
      "LABEL_ID": "(Part 1.  Information About The Person Filing This Request.  8. Request for Premium Processing Service \\(select only one box\\). Select I am the attorney or accredited representative for the applicant who is filing or has filed an application eligible for Premium Processing Service. \\(Complete and submit Form G - 28 or Form G - 2 8I, if Form G - 28 or Form G - 2 8I has not been submitted with the application.\\) )",
      "VALUE": "1 Hey"
    },
    {
      "ANNOT_FIELD_KEY": "<feff00500061007200740031005f004c0069006e006500310031005f0043006800650063006b0042006f0078005b0032005d>",
      "LABEL_ID": "(Part 1.  Information About The Person Filing This Request.  8. Request for Premium Processing Service \\(select only one box\\).  Select I am the petitioner who is filing or has filed a petition eligible for Premium Processing Service.)",
      "VALUE": "2 Hey"
    },
    {
      "ANNOT_FIELD_KEY": "<feff00500061007200740031005f004c0069006e006500310031005f0043006800650063006b0042006f0078005b0033005d>",
      "LABEL_ID": "(Part 1.  Information About The Person Filing This Request.  8. Request for Premium Processing Service \\(select only one box\\). I am the attorney or accredited representative for the petitioner who is filing or has filed a petition eligible for Premium Processing Service. \\(Complete and submit Form G - 28, Notice of Entry of Appearance as Attorney or Accredited Representative, or Form G - 2 8I, Notice of Entry of Appearance as Attorney In Matters Outside the Geographical Confines of the United States, if Form G - 28 or Form G - 2 8I has not been submitted with the petition.\\))",
      "VALUE": "3 Hey"
    },
    {
      "ANNOT_FIELD_KEY": "<feff00500032005f004c0069006e00650032005f0052006500630065006900700074004e0075006d006200650072006f0066005b0030005d>",
      "LABEL_ID": "(Part 2. Information About the Request.  2.  Enter Receipt Number of Related Petition or Application.)",
      "VALUE": "4 Hey"
    },
    {
      "ANNOT_FIELD_KEY": "<feff00500032005f004c0069006e00650031005f0046006f0072006d004e0075006d006200650072006f0066005b0030005d>",
      "LABEL_ID": "(Part 2.  Information About the Request. 1.  Enter Form Number of Related Petition or Application.)",
      "VALUE": "5 Hey"
    },
    {
      "ANNOT_FIELD_KEY": "<feff00500032005f004c0069006e00650032005f0043006c006100730073006f00720045006c00690067005200650071007500650073007400650064005b0030005d>",
      "LABEL_ID": "(Part 2. Information About the Request.  3.  Enter Classification or Eligibility Requested.)",
      "VALUE": "6 Hey"
    },
    {
      "ANNOT_FIELD_KEY": "<feff00500061007200740032005f004c0069006e00650034005f005000650074006900740069006f006e00650072004100700070006c006900630061006e00740047006900760065006e004e0061006d0065005b0030005d>",
      "LABEL_ID": "(Part 2. Information About the Request. 4.  Petitioner or Applicant in the Relating Case.  Enter Given Name \\(First Name\\).)",
      "VALUE": "7 Hey"
    },
    {
      "ANNOT_FIELD_KEY": "<feff00500061007200740032005f004c0069006e00650034005f005000650074006900740069006f006e00650072004100700070006c006900630061006e007400460061006d0069006c0079004e0061006d0065005b0030005d>",
      "LABEL_ID": "(Part 2. Information About the Request. 4.  Petitioner or Applicant in the Relating Case.  Enter Family Name \\(Last Name\\).)",
      "VALUE": "8 Hey"
    },
    {
      "ANNOT_FIELD_KEY": "<feff00500061007200740032005f004c0069006e00650034005f005000650074006900740069006f006e00650072004100700070006c006900630061006e0074004d006900640064006c0065004e0061006d0065005b0030005d>",
      "LABEL_ID": "(Part 2. Information About the Request. 4.  Petitioner or Applicant in the Relating Case.  Enter  Middle Name.)",
      "VALUE": "9 Hey"
    },
    {
      "ANNOT_FIELD_KEY": "<feff004c0069006e0065005f0047006900760065006e004e0061006d0065005b0030005d>",
      "LABEL_ID": "(Part 2. Information About the Request.  5. Beneficiary in the Related Case.  Enter Given Name \\(First Name\\).)",
      "VALUE": "10 Hey"
    },
    {
      "ANNOT_FIELD_KEY": "<feff004c0069006e0065005f00460061006d0069006c0079004e0061006d0065005b0030005d>",
      "LABEL_ID": "(Part 2. Information About the Request. 5. Beneficiary in the Related Case.  Enter Family Name \\(Last Name\\).)",
      "VALUE": "11 Hey"
    },
    {
      "ANNOT_FIELD_KEY": "<feff004c0069006e0065005f004d006900640064006c0065004e0061006d0065005b0030005d>",
      "LABEL_ID": "(Part 2. Information About the Request. 5.  Beneficiary in the Related Case.  Enter Middle Name.)",
      "VALUE": "12 Hey"
    },
    {
      "ANNOT_FIELD_KEY": "<feff00500061007200740031005f004c0069006e00650038005f004e0061006d0065004f00660043006f006d00700061006e00790050004f0043005f005400690074006c0065006f00660050004f0043005b0030005d>",
      "LABEL_ID": "(Part 2. Information About the Request.  6. Name of Point of Contact for the Company or Organization.  Enter Position Title.)",
      "VALUE": "13 Hey"
    },
    {
      "ANNOT_FIELD_KEY": "<feff00500061007200740031005f004c0069006e00650038005f004e0061006d0065004f00660043006f006d00700061006e00790050004f0043005f0047006900760065006e004e0061006d0065005b0030005d>",
      "LABEL_ID": "(Part 2. Information About the Request.  6. Name of Point of Contact for the Company or Organization.  Enter Given Name \\(First Name\\).)",
      "VALUE": "14 Hey"
    },
    {
      "ANNOT_FIELD_KEY": "<feff00500061007200740031005f004c0069006e00650038005f004e0061006d0065004f00660043006f006d00700061006e00790050004f0043005f00460061006d0069006c0079004e0061006d0065005b0030005d>",
      "LABEL_ID": "(Part 2. Information About the Request.  6. Name of Point of Contact for the Company or Organization.  Enter Family Name \\(Last Name\\).)",
      "VALUE": "15 Hey"
    },
    {
      "ANNOT_FIELD_KEY": "<feff00500061007200740031005f004c0069006e00650038005f004e0061006d0065004f00660043006f006d00700061006e00790050004f0043005f004d006900640064006c0065004e0061006d0065005b0030005d>",
      "LABEL_ID": "(Part 2. Information About the Request.  6. Name of Point of Contact for the Company or Organization. Enter Middle Name.)",
      "VALUE": "16 Hey"
    },
    {
      "ANNOT_FIELD_KEY": "<feff00500061007200740031005f004c0069006e00650039005f0043006f006d00700061006e0079004900520053005400610078004e0075006d006200650072005b0030005d>",
      "LABEL_ID": "(Part 2. Information About the Request.  7.  Company or Organization I R S Employer Identification Number \\(E I N\\) \\(if any\\).)",
      "VALUE": "17 Hey"
    },
    {
      "ANNOT_FIELD_KEY": "<feff00500061007200740031005f004c0069006e00650034005f0050006800790073006900630061006c0041006400640072006500730073005f00530074006100740065005b0030005d>",
      "LABEL_ID": "(Part 1. Information About The Person Filing This Request.  7. Physical Address. Select State from list of states.)",
      "VALUE": "18 Hey"
    },
    {
      "ANNOT_FIELD_KEY": "<feff00500061007200740031005f004c0069006e00650034005f0050006800790073006900630061006c0041006400640072006500730073005f005a006900700043006f00640065005b0030005d>",
      "LABEL_ID": "(Part 1. Information About The Person Filing This Request.  7. Physical Address. Enter Zip Code.)",
      "VALUE": "19 Hey"
    },
    {
      "ANNOT_FIELD_KEY": "<feff00500061007200740031005f004c0069006e00650034005f0050006800790073006900630061006c0041006400640072006500730073005f0055006e00690074005b0030005d>",
      "LABEL_ID": "(Part 1. Information About The Person Filing This Request.  7. Physical Address. Select Apartment.)",
      "VALUE": "20 Hey"
    },
    {
      "ANNOT_FIELD_KEY": "<feff00500061007200740031005f004c0069006e00650034005f0050006800790073006900630061006c0041006400640072006500730073005f0041007000740053007400650046006c0072004e0075006d006200650072005b0030005d>",
      "LABEL_ID": "(Part 1. Information About The Person Filing This Request.  6. Physical Address. Enter Apartment, Suite, or Floor Number.)",
      "VALUE": "21 Hey"
    },
    {
      "ANNOT_FIELD_KEY": "<feff00500061007200740031005f004c0069006e00650034005f0050006800790073006900630061006c0041006400640072006500730073005f0055006e00690074005b0031005d>",
      "LABEL_ID": "(Part 1. Information About The Person Filing This Request.  7. Physical Address. Select  Floor.)",
      "VALUE": "22 Hey"
    },
    {
      "ANNOT_FIELD_KEY": "<feff00500061007200740031005f004c0069006e00650034005f0050006800790073006900630061006c0041006400640072006500730073005f0055006e00690074005b0032005d>",
      "LABEL_ID": "(Part 1. Information About The Person Filing This Request.  7. Physical Address. Select Suite.)",
      "VALUE": "23 Hey"
    },
    {
      "ANNOT_FIELD_KEY": "<feff00500061007200740031005f004c0069006e00650034005f0050006800790073006900630061006c0041006400640072006500730073005f00430069007400790054006f0077006e005b0030005d>",
      "LABEL_ID": "(Part 1. Information About The Person Filing This Request.  7. Physical Address. Enter City or Town.)",
      "VALUE": "24 Hey"
    },
    {
      "ANNOT_FIELD_KEY": "<feff00500061007200740031005f004c0069006e00650034005f0050006800790073006900630061006c0041006400640072006500730073005f00500072006f00760069006e00630065005b0030005d>",
      "LABEL_ID": "(Part 1. Information About The Person Filing This Request.  7. Physical Address. Enter Province.)",
      "VALUE": "25 Hey"
    },
    {
      "ANNOT_FIELD_KEY": "<feff00500061007200740031005f004c0069006e00650034005f0050006800790073006900630061006c0041006400640072006500730073005f0050006f007300740061006c0043006f00640065005b0030005d>",
      "LABEL_ID": "(Part 1. Information About The Person Filing This Request.  7. Physical Address. Enter Postal Code.)",
      "VALUE": "26 Hey"
    },
    {
      "ANNOT_FIELD_KEY": "<feff00500061007200740031005f004c0069006e00650034005f0050006800790073006900630061006c0041006400640072006500730073005f0043006f0075006e007400720079005b0030005d>",
      "LABEL_ID": "(Part 1. Information About The Person Filing This Request.  7. Physical Address. Enter Country.)",
      "VALUE": "27 Hey"
    },
    {
      "ANNOT_FIELD_KEY": "<feff00500061007200740031005f004c0069006e00650034005f0050006800790073006900630061006c0041006400640072006500730073005f005300740072006500650074004e0075006d006200650072004e0061006d0065005b0030005d>",
      "LABEL_ID": "(Part 1. Information About The Person Filing This Request.  7. Physical Address. Enter Street Number and Name.)",
      "VALUE": "28 Hey"
    }
  ],
  "2": [
    {
      "ANNOT_FIELD_KEY": "<feff00500033005f004c0069006e00650031005f0043006800650063006b0062006f0078005b0030005d>",
      "LABEL_ID": "(Part 3.  Requestor's Statement, Contact Information, Declaration, Certification and Signature. Requestor's Statement.  1. Requestor's Statement Regarding the Interpreter.  1. B. Select The interpreter named in Part 4. read to me every question and instruction on this request and my answer to every question in, a language in which I am fluent, and I understood everything.)",
      "VALUE": "0 Hey"
    },
    {
      "ANNOT_FIELD_KEY": "<feff00500033005f004c0069006e00650031005f0043006800650063006b0062006f0078005b0031005d>",
      "LABEL_ID": "(Part 3.  Requestor's Statement, Contact Information, Declaration, Certification, and Signature. NOTE:  Read the Penalties section of the Form I - 9 0 7 Instructions before completing this section. I understand that U.S. Citizenship and Immigration Services \\(U S C I S\\) will refund the Premium Processing Service fee to the person listed in Part 1. of this request if U S C I S does not take an action on the related case within 15 calendar days after the appropriate U S C I S office physically receives this request.  I understand that case actions include a referral for investigation of suspected fraud, misrepresentation, or the issuance of an approval notice, a request for evidence, a notice of intent to deny, or a denial notice. Requestor's Statement. NOTE:  Select the box for either Item A. or B. in Item Number 1.  If applicable, select the box for Item Number 2.  1. Requestor's Statement Regarding the Interpreter.  1. A. Select I can read and understand English, and I have read and understand every question and instruction on this request and my answer to every question.)",
      "VALUE": "1 Hey"
    },
    {
      "ANNOT_FIELD_KEY": "<feff00500033005f004c0069006e00650031005f0042005f004c0061006e00670075006100670065005b0030005d>",
      "LABEL_ID": "(Part 3.  Requestor's Statement, Contact Information, Declaration, Certification, and Signature. Requestor's Statement.   1. B.  Enter language in which I am fluent, and I understood everything.)",
      "VALUE": "2 Hey"
    },
    {
      "ANNOT_FIELD_KEY": "<feff00500033005f004c0069006e00650032005f0043006800650063006b0062006f0078005b0030005d>",
      "LABEL_ID": "(Part 3.  Requestor's Statement, Contact Information, Declaration, Certification, and Signature.  Requestor's Statement.   2. Requestor's Statement Regarding the Preparer. Select at my request, the preparer named in Part 5, prepared this request for me based only upon information I provided or authorized.  )",
      "VALUE": "3 Hey"
    },
    {
      "ANNOT_FIELD_KEY": "<feff00500033005f004c0069006e00650032005f004e0061006d0065006f00660052006500700072006500730065006e007400610074006900760065005b0030005d>",
      "LABEL_ID": "(Part 3.  Requestor's Statement, Contact Information, Declaration, Certification, and Signature. Requestor's Statement. 2. Requestor's Statement Regarding the Preparer. Enter the preparer named in Part 5.)",
      "VALUE": "4 Hey"
    },
    {
      "ANNOT_FIELD_KEY": "<feff00500061007200740031005f004c0069006e00650037005f004f00740068006500720049006e0066006f0072006d006100740069006f006e00410062006f007500740043006f006d00700061006e0079004f00720067005f00530074006100740065005b0030005d>",
      "LABEL_ID": "(Part 2. Information About the Request. 8.  Address of Petitioner, Applicant, Company or Organization Named in Related Case. Select State from list of states.)",
      "VALUE": "5 Hey"
    },
    {
      "ANNOT_FIELD_KEY": "<feff00500061007200740031005f004c0069006e00650037005f004f00740068006500720049006e0066006f0072006d006100740069006f006e00410062006f007500740043006f006d00700061006e0079004f00720067005f005a006900700043006f00640065005b0030005d>",
      "LABEL_ID": "(Part 2. Information About the Request. 8.  Address of Petitioner, Applicant, Company or Organization Named in Related Case. Enter the Zip Code.)",
      "VALUE": "6 Hey"
    },
    {
      "ANNOT_FIELD_KEY": "<feff00500061007200740031005f004c0069006e00650037005f004f00740068006500720049006e0066006f0072006d006100740069006f006e00410062006f007500740043006f006d00700061006e0079004f00720067005f0055006e00690074005b0030005d>",
      "LABEL_ID": "(Part 2. Information About the Request. 8.  Address of Petitioner, Applicant, Company or Organization Named in Related Case. Select Apartment.)",
      "VALUE": "7 Hey"
    },
    {
      "ANNOT_FIELD_KEY": "<feff00500061007200740031005f004c0069006e00650037005f004f00740068006500720049006e0066006f0072006d006100740069006f006e00410062006f007500740043006f006d00700061006e0079004f00720067005f0041007000740053007400650046006c0072004e0075006d006200650072005b0030005d>",
      "LABEL_ID": "(Part 2. Information About the Request. 8.  Address of Petitioner, Applicant, Company or Organization Named in Related Case. Enter Apartment, Suite, or Floor Number.)",
      "VALUE": "8 Hey"
    },
    {
      "ANNOT_FIELD_KEY": "<feff00500061007200740031005f004c0069006e00650037005f004f00740068006500720049006e0066006f0072006d006100740069006f006e00410062006f007500740043006f006d00700061006e0079004f00720067005f0055006e00690074005b0031005d>",
      "LABEL_ID": "(Part 2. Information About the Request. 8.  Address of Petitioner, Applicant, Company or Organization Named in Related Case. Select Floor.)",
      "VALUE": "9 Hey"
    },
    {
      "ANNOT_FIELD_KEY": "<feff00500061007200740031005f004c0069006e00650037005f004f00740068006500720049006e0066006f0072006d006100740069006f006e00410062006f007500740043006f006d00700061006e0079004f00720067005f0055006e00690074005b0032005d>",
      "LABEL_ID": "(Part 2. Information About the Request. 8.  Address of Petitioner, Applicant, Company or Organization Named in Related Case. Select Suite.)",
      "VALUE": "10 Hey"
    },
    {
      "ANNOT_FIELD_KEY": "<feff00500061007200740031005f004c0069006e00650037005f004f00740068006500720049006e0066006f0072006d006100740069006f006e00410062006f007500740043006f006d00700061006e0079004f00720067005f00430069007400790054006f0077006e005b0030005d>",
      "LABEL_ID": "(Part 2. Information About the Request. 8.  Address of Petitioner, Applicant, Company or Organization Named in Related Case. Enter the City or Town.)",
      "VALUE": "11 Hey"
    },
    {
      "ANNOT_FIELD_KEY": "<feff00500061007200740031005f004c0069006e00650037005f004f00740068006500720049006e0066006f0072006d006100740069006f006e00410062006f007500740043006f006d00700061006e0079004f00720067005f00500072006f00760069006e00630065005b0030005d>",
      "LABEL_ID": "(Part 2. Information About the Request. 8.  Address of Petitioner, Applicant, Company or Organization Named in Related Case. Enter Province.)",
      "VALUE": "12 Hey"
    },
    {
      "ANNOT_FIELD_KEY": "<feff00500061007200740031005f004c0069006e00650037005f004f00740068006500720049006e0066006f0072006d006100740069006f006e00410062006f007500740043006f006d00700061006e0079004f00720067005f0050006f007300740061006c0043006f00640065005b0030005d>",
      "LABEL_ID": "(Part 2. Information About the Request. 8.  Address of Petitioner, Applicant, Company or Organization Named in Related Case. Enter Postal Code.)",
      "VALUE": "13 Hey"
    },
    {
      "ANNOT_FIELD_KEY": "<feff00500061007200740031005f004c0069006e00650037005f004f00740068006500720049006e0066006f0072006d006100740069006f006e00410062006f007500740043006f006d00700061006e0079004f00720067005f0043006f0075006e007400720079005b0030005d>",
      "LABEL_ID": "(Part 2. Information About the Request. 8.  Address of Petitioner, Applicant, Company or Organization Named in Related Case. Enter Country.)",
      "VALUE": "14 Hey"
    },
    {
      "ANNOT_FIELD_KEY": "<feff00500061007200740031005f004c0069006e00650037005f004f00740068006500720049006e0066006f0072006d006100740069006f006e00410062006f007500740043006f006d00700061006e0079004f00720067005f005300740072006500650074004e0075006d006200650072004e0061006d0065005b0030005d>",
      "LABEL_ID": "(Part 2. Information About the Request.  8. Address of Petitioner, Applicant, Company or Organization Named in Related Case. Enter Street Number and Name.)",
      "VALUE": "15 Hey"
    },
    {
      "ANNOT_FIELD_KEY": "<feff00500033005f004c0069006e00650034005f00440061007900740069006d006500540065006c006500500068006f006e0065004e0075006d006200650072005b0030005d>",
      "LABEL_ID": "(Part 3.  Requestor's Statement, Contact Information, Declaration, Certification, and Signature.  Requestor's Contact Information.  3. Enter Requestor's Daytime Telephone Number. Enter 10 digit number.)",
      "VALUE": "16 Hey"
    },
    {
      "ANNOT_FIELD_KEY": "<feff00500033005f004c0069006e00650035005f004d006f00620069006c006500540065006c006500500068006f006e0065004e0075006d006200650072005b0030005d>",
      "LABEL_ID": "(Part 3.  Requestor's Statement, Contact Information, Declaration, Certification, and Signature. Requestor's Contact Information.  4. Enter Requestor's Mobile Telephone Number \\(if any\\).  Enter 10 digit number.)",
      "VALUE": "17 Hey"
    },
    {
      "ANNOT_FIELD_KEY": "<feff00500033005f004c0069006e00650036005f0045006d00610069006c005b0030005d>",
      "LABEL_ID": "(Part 3.  Requestor's Statement, Contact Information, Declaration, Certification, and Signature. Requestor's Contact Information. 5. Enter Requestor's Email address, if any.)",
      "VALUE": "18 Hey"
    },
    {
      "ANNOT_FIELD_KEY": "<feff00500033005f004c0069006e00650035005f004d006f00620069006c006500540065006c006500500068006f006e0065004e0075006d006200650072005b0031005d>",
      "LABEL_ID": "(Part 3.  Requestor's Statement, Contact Information, Declaration, Certification, and Signature. Requestor's Contact Information.  4. Enter Requestor's Mobile Telephone Number \\(if any\\).  Enter 10 digit number.)",
      "VALUE": "19 Hey"
    }
  ],
  "3": [
    {
      "ANNOT_FIELD_KEY": "<feff00500034005f004c0069006e00650033005f00430069007400790054006f0077006e005b0030005d>",
      "LABEL_ID": "(Part 4.  Interpreter's Contact Information, Certification, and Signature. Interpreter's Mailing Address. 3. Enter City or Town.)",
      "VALUE": "0 Hey"
    },
    {
      "ANNOT_FIELD_KEY": "<feff00500034005f004c0069006e00650033005f00500072006f00760069006e00630065005b0030005d>",
      "LABEL_ID": "(Part 4.  Interpreter's Contact Information, Certification, and Signature. Interpreter's Mailing Address. 3. Enter Province.)",
      "VALUE": "1 Hey"
    },
    {
      "ANNOT_FIELD_KEY": "<feff00500034005f004c0069006e00650033005f0050006f007300740061006c0043006f00640065005b0030005d>",
      "LABEL_ID": "(Part 4.  Interpreter's Contact Information, Certification, and Signature. Interpreter's Mailing Address. 3. Enter Postal Code.)",
      "VALUE": "2 Hey"
    },
    {
      "ANNOT_FIELD_KEY": "<feff00500034005f004c0069006e00650033005f005a006900700043006f00640065005b0030005d>",
      "LABEL_ID": "(Part 4.  Interpreter's Contact Information, Certification, and Signature. Interpreter's Mailing Address. 3. Enter Zip Code.)",
      "VALUE": "3 Hey"
    },
    {
      "ANNOT_FIELD_KEY": "<feff00500034005f004c0069006e00650033005f00530074006100740065005b0030005d>",
      "LABEL_ID": "(Part 4.  Interpreter's Contact Information, Certification, and Signature. Interpreter's Mailing Address. 3. Select State form list of states.)",
      "VALUE": "4 Hey"
    },
    {
      "ANNOT_FIELD_KEY": "<feff00500034005f004c0069006e00650033005f005300740072006500650074004e0075006d006200650072004e0061006d0065005b0030005d>",
      "LABEL_ID": "(Part 4. Interpreter's Contact Information, Certification, and Signature.  Interpreter's Mailing Address. 3. Enter Street Number and Name.)",
      "VALUE": "5 Hey"
    },
    {
      "ANNOT_FIELD_KEY": "<feff00500034005f004c0069006e00650033005f0055006e00690074005b0030005d>",
      "LABEL_ID": "(Part 4.  Interpreter's Contact Information, Certification, and Signature. Interpreter's Mailing Address. 3. Select Suite.)",
      "VALUE": "6 Hey"
    },
    {
      "ANNOT_FIELD_KEY": "<feff00500034005f004c0069006e00650033005f0055006e00690074005b0031005d>",
      "LABEL_ID": "(Part 4.  Interpreter's Contact Information, Certification, and Signature. Interpreter's Mailing Address. 3. Select Floor.)",
      "VALUE": "7 Hey"
    },
    {
      "ANNOT_FIELD_KEY": "<feff00500034005f004c0069006e00650033005f0041007000740053007400650046006c0072004e0075006d006200650072005b0030005d>",
      "LABEL_ID": "(Part 4.  Interpreter's Contact Information, Certification, and Signature. Interpreter's Mailing Address. 3. Enter Apartment, Suite, or Floor Number.)",
      "VALUE": "8 Hey"
    },
    {
      "ANNOT_FIELD_KEY": "<feff00500034005f004c0069006e00650033005f0055006e00690074005b0032005d>",
      "LABEL_ID": "(Part 4.  Interpreter's Contact Information, Certification, and Signature. Interpreter's Mailing Address. 3. Select Apartment.)",
      "VALUE": "9 Hey"
    },
    {
      "ANNOT_FIELD_KEY": "<feff00500034005f004c0069006e00650033005f0043006f0075006e007400720079005b0030005d>",
      "LABEL_ID": "(Part 4.  Interpreter's Contact Information, Certification, and Signature. Interpreter's Mailing Address. 3. Enter Country.)",
      "VALUE": "10 Hey"
    },
    {
      "ANNOT_FIELD_KEY": "<feff00500034005f004c0069006e00650035005f0045006d00610069006c005b0030005d>",
      "LABEL_ID": "(Part 4.  Interpreter's Contact Information, Certification, and Signature. Interpreter's Contact Information. 6. Enter Interpreter's Email Address, \\(if any\\).)",
      "VALUE": "11 Hey"
    },
    {
      "ANNOT_FIELD_KEY": "<feff00500034005f004c0069006e00650034005f00440061007900740069006d006500540065006c006500500068006f006e0065004e0075006d006200650072005b0030005d>",
      "LABEL_ID": "(Part 4.  Interpreter's Contact Information, Certification, and Signature. Interpreter's Contact Information. 4. Enter Interpreter's Daytime Telephone Number. Enter 10 digit number.)",
      "VALUE": "12 Hey"
    },
    {
      "ANNOT_FIELD_KEY": "<feff00500034005f004c0069006e00650031005f0049006e0074006500720070007200650074006500720047006900760065006e004e0061006d0065005b0030005d>",
      "LABEL_ID": "(Part 4. Interpreter's Contact Information, Certification, and Signature. Interpreter's Full Name. 1. Enter the Interpreter's Given Name \\(First Name\\).)",
      "VALUE": "13 Hey"
    },
    {
      "ANNOT_FIELD_KEY": "<feff00500034005f004c0069006e00650031005f0049006e00740065007200700072006500740065007200460061006d0069006c0079004e0061006d0065005b0030005d>",
      "LABEL_ID": "(Part 4. Interpreter's Contact Information, Certification, and Signature. Provide the following information about the interpreter: Interpreter's Full Name. 1. Enter the Interpreter's Family Name \\(Last Name\\).)",
      "VALUE": "14 Hey"
    },
    {
      "ANNOT_FIELD_KEY": "<feff00500034005f004c0069006e00650032005f004e0061006d0065006f00660042007500730069006e006500730073006f0072004f00720067004e0061006d0065005b0030005d>",
      "LABEL_ID": "(Part 4. Interpreter's Contact Information, Certification, and Signature. Interpreter's Full Name.  2. Enter Interpreter's Business or Organization Name \\(if any\\).)",
      "VALUE": "15 Hey"
    },
    {
      "ANNOT_FIELD_KEY": "<feff005000740035004c0069006e00650033005f005300690067006e00610074007500720065004f0066005000650074006900740069006f006e00650072005b0030005d>",
      "LABEL_ID": "(Part 3.  Part 3.  Requestor's Statement, Contact Information, Declaration, Certification, and Signature. Requestor's Signature. 6. Requestor's Signature. This form can not be signed electronically.  The name of the preparer can not be typewritten into this space. NOTE TO ALL REQUESTORS:  If you do not completely fill out this request or fail to submit required documents listed in the Instructions, U S C I S may deny your request.)",
      "VALUE": "16 Hey"
    },
    {
      "ANNOT_FIELD_KEY": "<feff00500033005f0044006100740065006f0066005300690067006e00610074007500720065005b0030005d>",
      "LABEL_ID": "(Part 3.  Requestor's Statement, Contact Information, Declaration, Certification, and Signature. Requestor's Signature. 6. Requestor's Signature. Date of Signature. Enter the 2-digit Month, 2- digit Day and 4-digit Year.)",
      "VALUE": "17 Hey"
    },
    {
      "ANNOT_FIELD_KEY": "<feff00500034005f004c0069006e00650036005f004c0061006e00670075006100670065005b0030005d>",
      "LABEL_ID": "(Part 4.  Interpreter's Contact Information, Certification, and Signature. Interpreter's Certification.  I certify under penalty of perjury, that  I am fluent in English and \\(enter language\\) , which is the same language specified in Part 3., Item B. in Item Number 1., and I have read to this requestor in the identified language every question and instruction on this request and his or her answer to every question.  The requestor informed me that he or she understands every instruction, question, and answer on the request, including the Requestor's Declaration and Certification, and has verified the accuracy of every answer.)",
      "VALUE": "18 Hey"
    },
    {
      "ANNOT_FIELD_KEY": "<feff00500034005f004c0069006e00650034005f00440061007900740069006d006500540065006c006500500068006f006e0065004e0075006d006200650072005b0031005d>",
      "LABEL_ID": "(Part 4.  Interpreter's Contact Information, Certification, and Signature. Interpreter's Contact Information. 5. Enter Interpreter's Mobile Telephone Number \\(if any\\). Enter 10 digit number.)",
      "VALUE": "19 Hey"
    }
  ],
  "4": [
    {
      "ANNOT_FIELD_KEY": "<feff00500035005f004c0069006e00650036005f0045006d00610069006c0041006400640072006500730073005b0030005d>",
      "LABEL_ID": "(Part 5.  Name, Contact Information, Declaration, and Signature of the Person Preparing this Request, \\rIf Other Than the Requestor. Provide the following information about the preparer: Preparer's Contact Information.  6.  Enter Preparer's Email Address, if any.)",
      "VALUE": "0 Hey"
    },
    {
      "ANNOT_FIELD_KEY": "<feff00500035005f004c0069006e00650034005f00440061007900740069006d006500540065006c006500500068006f006e0065004e0075006d006200650072005b0030005d>",
      "LABEL_ID": "(Part 5.  Name, Contact Information, Declaration, and Signature of the Person Preparing this Request, \\rIf Other Than the Requestor. Provide the following information about the preparer: Preparer's Contact Information.  4.  Enter Preparer's Telephone Number. Enter 10 digit number.)",
      "VALUE": "1 Hey"
    },
    {
      "ANNOT_FIELD_KEY": "<feff00500035005f004c0069006e00650035005f004600610078004e0075006d006200650072005b0030005d>",
      "LABEL_ID": "(Part 5.  Name, Contact Information, Declaration, and Signature of the Person Preparing this Request, \\rIf Other Than the Requestor. Provide the following information about the preparer: Preparer's Contact Information.  5. Enter Preparer's Fax Number. Enter 10 digit number.)",
      "VALUE": "2 Hey"
    },
    {
      "ANNOT_FIELD_KEY": "<feff00500035005f004c0069006e00650033005f00430069007400790054006f0077006e005b0030005d>",
      "LABEL_ID": "(Part 5.  Contact Information, Declaration, and Signature of the Person Preparing this Request, If Other than the Requestor.  3.  Preparer's Mailing Address.  Enter City or Town)",
      "VALUE": "3 Hey"
    },
    {
      "ANNOT_FIELD_KEY": "<feff00500035005f004c0069006e00650033005f00500072006f00760069006e00630065005b0030005d>",
      "LABEL_ID": "(Part 5.  Name, Contact Information, Declaration, and Signature of the Person Preparing this Request, \\rIf Other Than the Requestor. Provide the following information about the preparer: Preparer's Mailing Address.   3. Enter Province.)",
      "VALUE": "4 Hey"
    },
    {
      "ANNOT_FIELD_KEY": "<feff00500035005f004c0069006e00650033005f0050006f007300740061006c0043006f00640065005b0030005d>",
      "LABEL_ID": "(Part 5.  Name, Contact Information, Declaration, and Signature of the Person Preparing this Request, \\rIf Other Than the Requestor. Provide the following information about the preparer: Preparer's Mailing Address.    3. Enter Postal Code.)",
      "VALUE": "5 Hey"
    },
    {
      "ANNOT_FIELD_KEY": "<feff00500035005f004c0069006e00650033005f005a006900700043006f00640065005b0030005d>",
      "LABEL_ID": "(Part 5.  Name, Contact Information, Declaration, and Signature of the Person Preparing this Request, \\rIf Other Than the Requestor. Provide the following information about the preparer: Preparer's Mailing Address.   3. Enter Zip Code.)",
      "VALUE": "6 Hey"
    },
    {
      "ANNOT_FIELD_KEY": "<feff00500035005f004c0069006e00650033005f00530074006100740065005b0030005d>",
      "LABEL_ID": "(Part 5.  Name, Contact Information, Declaration, and Signature of the Person Preparing this Request, \\rIf Other Than the Requestor. Provide the following information about the preparer: Preparer's Mailing Address.   3. Select State from list of states.  containing 2 letter abbreviations of state names.)",
      "VALUE": "7 Hey"
    },
    {
      "ANNOT_FIELD_KEY": "<feff00500035005f004c0069006e00650033005f005300740072006500650074004e0075006d006200650072004e0061006d0065005b0030005d>",
      "LABEL_ID": "(Part 5.  Name, Contact Information, Declaration, and Signature of the Person Preparing this Request, \\rIf Other Than the Requestor. Provide the following information about the preparer: Preparer's Mailing Address.  3. Enter Street Number and Name.)",
      "VALUE": "8 Hey"
    },
    {
      "ANNOT_FIELD_KEY": "<feff00500035005f004c0069006e00650033005f0055006e00690074005b0030005d>",
      "LABEL_ID": "(Part 5.  Name, Contact Information, Declaration, and Signature of the Person Preparing this Request, \\rIf Other Than the Requestor. Provide the following information about the preparer: Preparer's Mailing Address.    3.  Select Suite.  )",
      "VALUE": "9 Hey"
    },
    {
      "ANNOT_FIELD_KEY": "<feff00500035005f004c0069006e00650033005f0055006e00690074005b0031005d>",
      "LABEL_ID": "(Part 5.  Name, Contact Information, Declaration, and Signature of the Person Preparing this Request, \\rIf Other Than the Requestor. Provide the following information about the preparer: Preparer's Mailing Address.   3.  Select Floor.  )",
      "VALUE": "10 Hey"
    },
    {
      "ANNOT_FIELD_KEY": "<feff0050007400310030004c0069006e006500330062005f0041007000740053007400650046006c0072004e0075006d006200650072005b0030005d>",
      "LABEL_ID": "(Part 5.  Name, Contact Information, Declaration, and Signature of the Person Preparing this Request, \\rIf Other Than the Requestor. Provide the following information about the preparer: Preparer's Mailing Address.  3. Enter Apartment, Suite or Floor number.)",
      "VALUE": "11 Hey"
    },
    {
      "ANNOT_FIELD_KEY": "<feff00500035005f004c0069006e00650033005f0055006e00690074005b0032005d>",
      "LABEL_ID": "(Part 5.  Name, Contact Information, Declaration, and Signature of the Person Preparing this Request, \\rIf Other Than the Requestor. Provide the following information about the preparer: Preparer's Mailing Address.   3. Select Apartment.)",
      "VALUE": "12 Hey"
    },
    {
      "ANNOT_FIELD_KEY": "<feff00500035005f004c0069006e00650033005f0043006f0075006e007400720079005b0030005d>",
      "LABEL_ID": "(Part 5.  Name, Contact Information, Declaration, and Signature of the Person Preparing this Request, \\rIf Other Than the Requestor. Provide the following information about the preparer: Preparer's Mailing Address.    3. Enter Country.)",
      "VALUE": "13 Hey"
    },
    {
      "ANNOT_FIELD_KEY": "<feff00500035005f004c0069006e00650031005f005000720065007000610072006500720047006900760065006e004e0061006d0065005b0030005d>",
      "LABEL_ID": "(Part 5. Contact Information, Declaration, and Signature of the Person Preparing this Request, \\rIf Other Than the Requestor.  Preparer's Full Name. 1. Enter Preparer's Given Name \\(First Name\\).)",
      "VALUE": "14 Hey"
    },
    {
      "ANNOT_FIELD_KEY": "<feff00500035005f004c0069006e00650031005f0050007200650070006100720065007200460061006d0069006c0079004e0061006d0065005b0030005d>",
      "LABEL_ID": "(Part 5. Name, Contact Information, Declaration, and Signature of the Person Preparing this Request, \\rIf Other Than the Requestor. Provide the following information about the preparer. Preparer's Full Name. 1. Enter Preparer's Family Name \\(Last Name\\).)",
      "VALUE": "15 Hey"
    },
    {
      "ANNOT_FIELD_KEY": "<feff00500035005f004c0069006e00650032005f004e0061006d0065006f00660042007500730069006e006500730073006f0072004f00720067004e0061006d0065005b0030005d>",
      "LABEL_ID": "(Part 5.  Name, Contact Information, Declaration, and Signature of the Person Preparing this Request, \\rIf Other Than the Requestor. Provide the following information about the preparer: Preparer's Full Name.  2.   Enter Preparer's Business or Organization Name \\(if any\\).)",
      "VALUE": "16 Hey"
    },
    {
      "ANNOT_FIELD_KEY": "<feff00500034005f004c0069006e00650036005f005300690067006e00610074007500720065005b0030005d>",
      "LABEL_ID": "(Part 4. Interpreter's Contact Information, Certification, and Signature. Interpreter's Signature. 7.  Interpreter's Signature. This form can not be signed electronically.  The name of the interpreter can not be typewritten into this space.)",
      "VALUE": "17 Hey"
    },
    {
      "ANNOT_FIELD_KEY": "<feff00500034005f004c0069006e00650036005f0044006100740065006f0066005300690067006e00610074007500720065005b0030005d>",
      "LABEL_ID": "(Part 4.  Interpreter's Contact Information, Certification, and Signature. Interpreter's Signature.  7.  Date of Signature. Enter the 2-digit Month, 2-digit Day and 4-digit Year.)",
      "VALUE": "18 Hey"
    },
    {
      "ANNOT_FIELD_KEY": "<feff00500035005f004c0069006e006500370061005f0043006800650063006b0062006f0078005b0030005d>",
      "LABEL_ID": "(Part 5.  Name, Contact Information, Declaration, and Signature of the Person Preparing this Request, \\rIf Other Than the Requestor. Provide the following information about the preparer: Preparer's Statement.  7.  A.  Select  I am not an attorney or accredited representative but have prepared this request on behalf of the requestor with the requestor's consent. )",
      "VALUE": "19 Hey"
    },
    {
      "ANNOT_FIELD_KEY": "<feff00500035005f004c0069006e006500370062005f0043006800650063006b0062006f0078005b0030005d>",
      "LABEL_ID": "(Part 5. Name, Contact Information, Declaration, and Signature of the Person Preparing this Request, \\rIf Other Than the Requestor. 7. B.  Select I am an attorney or accredited representative and my representation of the requestor in this case extends or does not extend beyond the preparation of this request.)",
      "VALUE": "20 Hey"
    },
    {
      "ANNOT_FIELD_KEY": "<feff00500035005f004c0069006e006500370062005f0065007800740065006e00640073005b0030005d>",
      "LABEL_ID": "(Part 5. Name, Contact Information, Declaration, and Signature of the Person Preparing this Request, \\rIf Other Than the Requestor. Preparer's Statement.  7. B. Select I am an attorney or accredited representative and my representation of the requestor in this case extends beyond the preparation of this request. NOTE:  If you are an attorney or accredited representative, you may need to submit a completed Form G - 28 or Form G - 2 8I with this request.)",
      "VALUE": "21 Hey"
    },
    {
      "ANNOT_FIELD_KEY": "<feff00500035005f004c0069006e006500370062005f006e006f00740065007800740065006e00640073005b0030005d>",
      "LABEL_ID": "(Part 5. Name, Contact Information, Declaration, and Signature of the Person Preparing this Request, \\rIf Other Than the Requestor.  Preparer's Statement.  7. B. Select  I am an attorney or accredited representative and my representation of the requestor in this case does not extend beyond the preparation of this request. NOTE:  If you are an attorney or accredited representative, you may need to submit a completed Form G - 28 or Form G - 2 8I with this request.)",
      "VALUE": "22 Hey"
    }
  ],
  "5": [
    {
      "ANNOT_FIELD_KEY": "<feff00500035005f004c0069006e00650038005f005300690067006e00610074007500720065005b0030005d>",
      "LABEL_ID": "(Part 5.  Name, Contact Information, Declaration, and Signature of the Person Preparing this Request, \\rIf Other Than the Requestor. Provide the following information about the preparer. Preparer's Signature.  8.  Preparer's Signature.  This form can not be signed electronically.  The name of the preparer can not be typewritten into this space.)",
      "VALUE": "0 Hey"
    },
    {
      "ANNOT_FIELD_KEY": "<feff00500035005f004c0069006e00650038005f0044006100740065006f0066005300690067006e00610074007500720065005b0030005d>",
      "LABEL_ID": "(Part 5.  Name, Contact Information, Declaration, and Signature of the Person Preparing this Request, \\rIf Other Than the Requestor. Provide the following information about the preparer:  Preparer's Signature.  8.  Date of Signature. Enter the 2-digit Month, 2-digit Day and 4-digit Year.)",
      "VALUE": "1 Hey"
    }
  ],
  "6": [
    {
      "ANNOT_FIELD_KEY": "<feff005000740039004c0069006e006500330064005f004100640064006900740069006f006e0061006c0049006e0066006f005b0030005d>",
      "LABEL_ID": "(Part 6. Additional Information. 3. D. Enter Additional Information. )",
      "VALUE": "0 Hey"
    },
    {
      "ANNOT_FIELD_KEY": "<feff005000740039004c0069006e006500330061005f0050006100670065004e0075006d006200650072005b0030005d>",
      "LABEL_ID": "(Part 6. Additional Information. 3. A. Enter Page Number.)",
      "VALUE": "1 Hey"
    },
    {
      "ANNOT_FIELD_KEY": "<feff005000740039004c0069006e006500330062005f0050006100720074004e0075006d006200650072005b0030005d>",
      "LABEL_ID": "(Part 6. Additional Information. 3. B. Enter Part Number.)",
      "VALUE": "2 Hey"
    },
    {
      "ANNOT_FIELD_KEY": "<feff005000740039004c0069006e006500330063005f004900740065006d004e0075006d006200650072005b0030005d>",
      "LABEL_ID": "(Part 6. Additional Information. 3. C. Enter Item Number.)",
      "VALUE": "3 Hey"
    },
    {
      "ANNOT_FIELD_KEY": "<feff005000740031004c0069006e00650031005f0041006c00690065006e0052006500670069007300740072006100740069006f006e004e0075006d006200650072005b0031005d>",
      "LABEL_ID": "(Part 6.  Additional Information. 2. A. Number \\(if any\\). This field is pre-populated from Page 1.)",
      "VALUE": "4 Hey"
    },
    {
      "ANNOT_FIELD_KEY": "<feff005000740039004c0069006e006500340064005f004100640064006900740069006f006e0061006c0049006e0066006f005b0030005d>",
      "LABEL_ID": "(Part 6. Additional Information. 4. D. Enter Additional Information. )",
      "VALUE": "5 Hey"
    },
    {
      "ANNOT_FIELD_KEY": "<feff005000740039004c0069006e006500340061005f0050006100670065004e0075006d006200650072005b0030005d>",
      "LABEL_ID": "(Part 6. Additional Information. 4. A. Enter Page Number.)",
      "VALUE": "6 Hey"
    },
    {
      "ANNOT_FIELD_KEY": "<feff005000740039004c0069006e006500340062005f0050006100720074004e0075006d006200650072005b0030005d>",
      "LABEL_ID": "(Part 6. Additional Information. 4. B. Enter Part Number.)",
      "VALUE": "7 Hey"
    },
    {
      "ANNOT_FIELD_KEY": "<feff005000740039004c0069006e006500340063005f004900740065006d004e0075006d006200650072005b0030005d>",
      "LABEL_ID": "(Part 6. Additional Information. 4. C. Enter Item Number.)",
      "VALUE": "8 Hey"
    },
    {
      "ANNOT_FIELD_KEY": "<feff005000740031004c0069006e00650033005f0047006900760065006e004e0061006d0065005b0031005d>",
      "LABEL_ID": "(Part 6.  Additional Information.  1. Enter Given Name \\(First Name\\).)",
      "VALUE": "9 Hey"
    },
    {
      "ANNOT_FIELD_KEY": "<feff005000740031004c0069006e00650033005f00460061006d0069006c0079004e0061006d0065005b0031005d>",
      "LABEL_ID": "(Part 6.  Additional Information. If you need extra space to provide any additional information within this petition, use the space below.  If you need more space than what is provided, you may make copies of this page to complete and file with this petition or attach a separate sheet of paper.  Type or print your name and A-Number \\(if any\\) at the top of each sheet; indicate the Page Number, Part Number, and Item Number to which your answer refers; and sign and date each sheet. 1. Enter Family Name \\(Last Name\\).)",
      "VALUE": "10 Hey"
    },
    {
      "ANNOT_FIELD_KEY": "<feff005000740031004c0069006e00650033005f004d006900640064006c0065004e0061006d0065005b0031005d>",
      "LABEL_ID": "(Part 6.  Additional Information. 1. Enter Middle Name.)",
      "VALUE": "11 Hey"
    },
    {
      "ANNOT_FIELD_KEY": "<feff005000740039004c0069006e006500340064005f004100640064006900740069006f006e0061006c0049006e0066006f005b0031005d>",
      "LABEL_ID": "(Part 6. Additional Information. 4. D. Enter Additional Information. )",
      "VALUE": "12 Hey"
    },
    {
      "ANNOT_FIELD_KEY": "<feff005000740039004c0069006e006500340061005f0050006100670065004e0075006d006200650072005b0031005d>",
      "LABEL_ID": "(Part 6. Additional Information. 4. A. Enter Page Number.)",
      "VALUE": "13 Hey"
    },
    {
      "ANNOT_FIELD_KEY": "<feff005000740039004c0069006e006500340062005f0050006100720074004e0075006d006200650072005b0031005d>",
      "LABEL_ID": "(Part 6. Additional Information. 4. B. Enter Part Number.)",
      "VALUE": "14 Hey"
    },
    {
      "ANNOT_FIELD_KEY": "<feff005000740039004c0069006e006500340063005f004900740065006d004e0075006d006200650072005b0031005d>",
      "LABEL_ID": "(Part 6. Additional Information. 4. C. Enter Item Number.)",
      "VALUE": "15 Hey"
    }
  ]
}
